e-e-s- 1J
n-n-n
e-e-e
o-o-o
e-e-s- 1
n-n-n
s-s-s
n-n-n
e-p-s- 1
o-o-o
s-s-s
n-n-n
s-o-p-1
x-n-p
x-o-n
x-s
s-lo-e-1
x-p-ls
x-e-e
x-s
p-e-e-1
s
x
s-s
s-e-e-1
o
x-x-e
s-s
x-p-x-1
o
x-x-e
s-o
x-lo-s-1
o
x-x-n
s-o
x-s-p-1
le
x-x-p
p
s-s-x-1
p
x-x-p
x
x-1
le-n
x-x-n
x
x-1
x
x
x
